{
  "project_info": {
    "project_number": "61661771012",
    "firebase_url": "https://appuf2.firebaseio.com",
    "project_id": "appuf2",
    "storage_bucket": "appuf2.appspot.com"
  },
  "client": [
    {
      "client_info": {
        "mobilesdk_app_id": "1:61661771012:android:a03da7313638cae7c3cc51",
        "android_client_info": {
          "package_name": "com.example.appuf2"
        }
      },
      "oauth_client": [
        {
          "client_id": "61661771012-ah22m657ukomiqdnfalml7caecpl06c5.apps.googleusercontent.com",
          "client_type": 1,
          "android_info": {
            "package_name": "com.example.appuf2",
            "certificate_hash": "6416804c05e21ae2e6c864477fa918260e87a960"
          }
        },
        {
          "client_id": "61661771012-bavpktfck89h05adj8ivshc5brnp362q.apps.googleusercontent.com",
          "client_type": 3
        }
      ],
      "api_key": [
        {
          "current_key": "AIzaSyDAQNFeV4jUGHLKCnrhrjXnkwqqmDtezx8"
        }
      ],
      "services": {
        "appinvite_service": {
          "other_platform_oauth_client": [
            {
              "client_id": "61661771012-bavpktfck89h05adj8ivshc5brnp362q.apps.googleusercontent.com",
              "client_type": 3
            }
          ]
        }
      }
    }
  ],
  "configuration_version": "1"
}